{
  "type": ["null", "object"],
  "additionalProperties": false,
  "properties": {
    "id": {
      "type": ["null", "string"]
    },
    "name": {
      "type": ["null", "string"]
    },
    "item_family_id": {
      "type": ["null", "string"]
    },
    "item_id": {
      "type": ["null", "string"]
    },
    "description": {
      "type": ["null", "string"]
    },
    "status": {
      "type": ["null", "string"]
    },
    "external_name": {
      "type": ["null", "string"]
    },
    "pricing_model": {
      "type": ["null", "string"]
    },
    "price": {
      "type": ["null", "integer"]
    },
    "period": {
      "type": ["null", "integer"]
    },
    "currency_code": {
      "type": ["null", "string"]
    },
    "period_unit": {
      "type": ["null", "string"]
    },
    "trial_period": {
      "type": ["null", "integer"]
    },
    "trial_period_unit": {
      "type": ["null", "string"]
    },
    "shipping_period_unit": {
      "type": ["null", "string"]
    },
    "billing_cycles": {
      "type": ["null", "integer"]
    },
    "free_quantity": {
      "type": ["null", "integer"]
    },
    "resource_version": {
      "type": ["null", "integer"]
    },
    "updated_at": {
      "type": ["null", "string"],
      "format": "date-time"
    },
    "created_at": {
      "type": ["null", "string"],
      "format": "date-time"
    },
    "invoice_notes": {
      "type": ["null", "string"]
    },
    "is_taxable": {
      "type": ["null", "boolean"]
    },
    "metadata": {
      "type": ["null", "string"]
    },
    "item_type": {
      "type": ["null", "string"]
    },
    "show_description_in_invoices": {
      "type": ["null", "boolean"]
    },
    "show_description_in_quotes": {
      "type": ["null", "boolean"]
    },
    "cf_product_code": {
      "type": ["null", "string"]
    },
    "cf_exclude_from_revrec": { 
      "type" : ["null","string"]
    },
    "channel": {
      "type": ["null", "string"]
    },
    "tiers": {
      "type": ["null", "array"],
      "items": {
        "type": ["null","object"],
        "properties": {
          "starting_unit": {
            "type": ["null", "integer"]
          },
          "ending_unit": {
            "type": ["null", "integer"]
          },
          "price ": {
            "type": ["null", "integer"]
          }
        }
      }
    },
    "tax_detail": {
      "type": ["null","object"],
      "properties": {
        "tax_profile_id": {
          "type": ["null", "string"]
        },
        "avalara_sale_type": {
          "type": ["null", "string"]
        },
        "avalara_transaction_type": {
          "type": ["null", "integer"]
        },
        "avalara_service_type": {
          "type": ["null", "integer"]
        },
        "avalara_tax_code": {
          "type": ["null", "string"]
        },
        "taxjar_product_code": {
          "type": ["null", "string"]
        }
      }
    },
    "accounting_detail": {
      "type": ["null","object"],
      "properties": {
        "sku": {
          "type": ["null", "string"]
        },
        "accounting_code": {
          "type": ["null", "string"]
        },
        "accounting_category1": {
          "type": ["null", "string"]
        },
        "accounting_category2": {
          "type": ["null", "string"]
        },
        "accounting_category3": {
          "type": ["null", "string"]
        }
      }
    }
  }
}
